#
# There is insufficient memory for the Java Runtime Environment to continue.
# Native memory allocation (malloc) failed to allocate 706416 bytes for Chunk::new
# Possible reasons:
#   The system is out of physical RAM or swap space
#   In 32 bit mode, the process size limit was hit
# Possible solutions:
#   Reduce memory load on the system
#   Increase physical memory or swap space
#   Check if swap backing store is full
#   Use 64 bit Java on a 64 bit OS
#   Decrease Java heap size (-Xmx/-Xms)
#   Decrease number of Java threads
#   Decrease Java thread stack sizes (-Xss)
#   Set larger code cache with -XX:ReservedCodeCacheSize=
# This output file may be truncated or incomplete.
#
#  Out of Memory Error (allocation.cpp:390), pid=1524, tid=0x0000000000002208
#
# JRE version: OpenJDK Runtime Environment (8.0_152-b01) (build 1.8.0_152-release-1248-b01)
# Java VM: OpenJDK 64-Bit Server VM (25.152-b01 mixed mode windows-amd64 compressed oops)
# Failed to write core dump. Minidumps are not enabled by default on client versions of Windows
#

---------------  T H R E A D  ---------------

Current thread (0x000000001653c000):  JavaThread "C2 CompilerThread1" daemon [_thread_in_native, id=8712, stack(0x0000000017c90000,0x0000000017d90000)]

Stack: [0x0000000017c90000,0x0000000017d90000]
[error occurred during error reporting (printing stack bounds), id 0xc0000005]

Native frames: (J=compiled Java code, j=interpreted, Vv=VM code, C=native code)


Current CompileTask:
C2:   5024 1404   !   4       java.net.URLClassLoader$1::run (63 bytes)


---------------  P R O C E S S  ---------------

Java Threads: ( => current thread )
  0x00000000196ca800 JavaThread "Cache worker for file hash cache (D:\BookingAppointment\.gradle\5.1.1\fileHashes)" [_thread_blocked, id=10712, stack(0x000000001d380000,0x000000001d480000)]
  0x00000000196cc000 JavaThread "Cache worker for journal cache (C:\Users\rutvi\.gradle\caches\journal-1)" [_thread_blocked, id=6428, stack(0x000000001afe0000,0x000000001b0e0000)]
  0x00000000196cb800 JavaThread "File lock request listener" [_thread_in_native, id=6416, stack(0x000000001aee0000,0x000000001afe0000)]
  0x000000001927f000 JavaThread "Cache worker for file hash cache (C:\Users\rutvi\.gradle\caches\5.1.1\fileHashes)" [_thread_blocked, id=13436, stack(0x000000001ade0000,0x000000001aee0000)]
  0x000000001962b000 JavaThread "Thread-8" [_thread_blocked, id=9184, stack(0x000000001ace0000,0x000000001ade0000)]
  0x000000001962a000 JavaThread "Stdin handler" [_thread_blocked, id=12488, stack(0x000000001abe0000,0x000000001ace0000)]
  0x0000000019624800 JavaThread "Asynchronous log dispatcher for DefaultDaemonConnection: socket connection from /127.0.0.1:53963 to /127.0.0.1:53964" [_thread_blocked, id=372, stack(0x000000001aae0000,0x000000001abe0000)]
  0x0000000019621000 JavaThread "Daemon worker" [_thread_blocked, id=14088, stack(0x000000001a9e0000,0x000000001aae0000)]
  0x00000000195f9800 JavaThread "Cancel handler" [_thread_blocked, id=7744, stack(0x000000001a8e0000,0x000000001a9e0000)]
  0x000000001960a800 JavaThread "Handler for socket connection from /127.0.0.1:53963 to /127.0.0.1:53964" [_thread_in_native, id=12484, stack(0x000000001a5e0000,0x000000001a6e0000)]
  0x000000001960e800 JavaThread "Daemon" [_thread_blocked, id=2148, stack(0x000000001a4e0000,0x000000001a5e0000)]
  0x00000000194f2800 JavaThread "Daemon periodic checks" [_thread_blocked, id=13472, stack(0x000000001a3e0000,0x000000001a4e0000)]
  0x00000000194f1000 JavaThread "Incoming local TCP Connector on port 53963" [_thread_in_native, id=7180, stack(0x000000001a1a0000,0x000000001a2a0000)]
  0x0000000017eb9800 JavaThread "Service Thread" daemon [_thread_blocked, id=11296, stack(0x0000000018290000,0x0000000018390000)]
  0x000000001653f800 JavaThread "C1 CompilerThread2" daemon [_thread_blocked, id=1824, stack(0x0000000017d90000,0x0000000017e90000)]
=>0x000000001653c000 JavaThread "C2 CompilerThread1" daemon [_thread_in_native, id=8712, stack(0x0000000017c90000,0x0000000017d90000)]
  0x0000000016538800 JavaThread "C2 CompilerThread0" daemon [_thread_in_native, id=13216, stack(0x0000000017b90000,0x0000000017c90000)]
  0x0000000016546000 JavaThread "Attach Listener" daemon [_thread_blocked, id=14752, stack(0x0000000017a90000,0x0000000017b90000)]
  0x0000000016545000 JavaThread "Signal Dispatcher" daemon [_thread_blocked, id=8652, stack(0x0000000017990000,0x0000000017a90000)]
  0x0000000002bcb800 JavaThread "Finalizer" daemon [_thread_blocked, id=8268, stack(0x00000000177a0000,0x00000000178a0000)]
  0x0000000002bc0800 JavaThread "Reference Handler" daemon [_thread_blocked, id=3068, stack(0x00000000176a0000,0x00000000177a0000)]
  0x00000000007fe000 JavaThread "main" [_thread_blocked, id=2900, stack(0x0000000002970000,0x0000000002a70000)]

Other Threads:
  0x0000000016506000 VMThread [stack: 0x00000000175a0000,0x00000000176a0000] [id=9592]
  0x0000000017eba000 WatcherThread [stack: 0x0000000018390000,0x0000000018490000] [id=15088]

VM state:at safepoint (normal execution)

VM Mutex/Monitor currently owned by a thread:  ([mutex/lock_event])
[0x00000000007fd3f0] Threads_lock - owner thread: 0x0000000016506000
[0x00000000007fccf0] Heap_lock - owner thread: 0x0000000019621000

Heap:
 PSYoungGen      total 138240K, used 5104K [0x00000000e0000000, 0x00000000e8c00000, 0x0000000100000000)
  eden space 133120K, 0% used [0x00000000e0000000,0x00000000e0000000,0x00000000e8200000)
  from space 5120K, 99% used [0x00000000e8700000,0x00000000e8bfc010,0x00000000e8c00000)
  to   space 5120K, 0% used [0x00000000e8200000,0x00000000e8200000,0x00000000e8700000)
 ParOldGen       total 87552K, used 6322K [0x00000000a0000000, 0x00000000a5580000, 0x00000000e0000000)
  object space 87552K, 7% used [0x00000000a0000000,0x00000000a062c9d8,0x00000000a5580000)
 Metaspace       used 16587K, capacity 16952K, committed 17152K, reserved 1064960K
  class space    used 2390K, capacity 2550K, committed 2560K, reserved 1048576K

Card table byte_map: [0x0000000011f90000,0x00000000122a0000] byte_map_base: 0x0000000011a90000

Marking Bits: (ParMarkBitMap*) 0x000000005e125aa0
 Begin Bits: [0x00000000128a0000, 0x00000000140a0000)
 End Bits:   [0x00000000140a0000, 0x00000000158a0000)

Polling page: 0x00000000007e0000

CodeCache: size=245760Kb used=5159Kb max_used=5159Kb free=240600Kb
 bounds [0x0000000002bd0000, 0x00000000030e0000, 0x0000000011bd0000]
 total_blobs=1881 nmethods=1486 adapters=308
 compilation: enabled

Compilation events (10 events):
Event: 4.898 Thread 0x000000001653f800 1488       3       org.gradle.internal.service.DefaultServiceRegistry$ManagedObjectServiceProvider::requiredBy (20 bytes)
Event: 4.898 Thread 0x000000001653f800 nmethod 1488 0x00000000030d9b90 code [0x00000000030d9d20, 0x00000000030da248]
Event: 4.898 Thread 0x000000001653f800 1489       3       org.gradle.internal.service.DefaultServiceRegistry$ManagedObjectServiceProvider::fromSameRegistry (27 bytes)
Event: 4.899 Thread 0x000000001653f800 nmethod 1489 0x00000000030da390 code [0x00000000030da500, 0x00000000030da8d0]
Event: 4.924 Thread 0x000000001653f800 1490       3       com.google.common.base.Preconditions::checkPositionIndex (8 bytes)
Event: 4.925 Thread 0x000000001653f800 nmethod 1490 0x00000000030da990 code [0x00000000030dab20, 0x00000000030dae18]
Event: 4.928 Thread 0x000000001653f800 1491  s    3       java.io.ExpiringCache::get (39 bytes)
Event: 4.929 Thread 0x000000001653f800 nmethod 1491 0x00000000030daf90 code [0x00000000030db120, 0x00000000030db558]
Event: 4.973 Thread 0x000000001653f800 1492       3       org.gradle.initialization.MixInLegacyTypesClassLoader::shouldTransform (42 bytes)
Event: 4.974 Thread 0x000000001653f800 nmethod 1492 0x00000000030db690 code [0x00000000030db820, 0x00000000030dbc78]

GC Heap History (9 events):
Event: 1.180 GC heap before
{Heap before GC invocations=1 (full 0):
 PSYoungGen      total 38400K, used 33280K [0x00000000e0000000, 0x00000000e2a80000, 0x0000000100000000)
  eden space 33280K, 100% used [0x00000000e0000000,0x00000000e2080000,0x00000000e2080000)
  from space 5120K, 0% used [0x00000000e2580000,0x00000000e2580000,0x00000000e2a80000)
  to   space 5120K, 0% used [0x00000000e2080000,0x00000000e2080000,0x00000000e2580000)
 ParOldGen       total 87552K, used 0K [0x00000000a0000000, 0x00000000a5580000, 0x00000000e0000000)
  object space 87552K, 0% used [0x00000000a0000000,0x00000000a0000000,0x00000000a5580000)
 Metaspace       used 6919K, capacity 7042K, committed 7168K, reserved 1056768K
  class space    used 844K, capacity 907K, committed 1024K, reserved 1048576K
Event: 1.195 GC heap after
Heap after GC invocations=1 (full 0):
 PSYoungGen      total 38400K, used 4221K [0x00000000e0000000, 0x00000000e4b00000, 0x0000000100000000)
  eden space 33280K, 0% used [0x00000000e0000000,0x00000000e0000000,0x00000000e2080000)
  from space 5120K, 82% used [0x00000000e2080000,0x00000000e249f790,0x00000000e2580000)
  to   space 5120K, 0% used [0x00000000e4600000,0x00000000e4600000,0x00000000e4b00000)
 ParOldGen       total 87552K, used 8K [0x00000000a0000000, 0x00000000a5580000, 0x00000000e0000000)
  object space 87552K, 0% used [0x00000000a0000000,0x00000000a0002000,0x00000000a5580000)
 Metaspace       used 6919K, capacity 7042K, committed 7168K, reserved 1056768K
  class space    used 844K, capacity 907K, committed 1024K, reserved 1048576K
}
Event: 2.002 GC heap before
{Heap before GC invocations=2 (full 0):
 PSYoungGen      total 38400K, used 37501K [0x00000000e0000000, 0x00000000e4b00000, 0x0000000100000000)
  eden space 33280K, 100% used [0x00000000e0000000,0x00000000e2080000,0x00000000e2080000)
  from space 5120K, 82% used [0x00000000e2080000,0x00000000e249f790,0x00000000e2580000)
  to   space 5120K, 0% used [0x00000000e4600000,0x00000000e4600000,0x00000000e4b00000)
 ParOldGen       total 87552K, used 8K [0x00000000a0000000, 0x00000000a5580000, 0x00000000e0000000)
  object space 87552K, 0% used [0x00000000a0000000,0x00000000a0002000,0x00000000a5580000)
 Metaspace       used 8894K, capacity 9136K, committed 9216K, reserved 1056768K
  class space    used 1160K, capacity 1260K, committed 1280K, reserved 1048576K
Event: 2.011 GC heap after
Heap after GC invocations=2 (full 0):
 PSYoungGen      total 71680K, used 4500K [0x00000000e0000000, 0x00000000e4b00000, 0x0000000100000000)
  eden space 66560K, 0% used [0x00000000e0000000,0x00000000e0000000,0x00000000e4100000)
  from space 5120K, 87% used [0x00000000e4600000,0x00000000e4a650a8,0x00000000e4b00000)
  to   space 5120K, 0% used [0x00000000e4100000,0x00000000e4100000,0x00000000e4600000)
 ParOldGen       total 87552K, used 16K [0x00000000a0000000, 0x00000000a5580000, 0x00000000e0000000)
  object space 87552K, 0% used [0x00000000a0000000,0x00000000a0004000,0x00000000a5580000)
 Metaspace       used 8894K, capacity 9136K, committed 9216K, reserved 1056768K
  class space    used 1160K, capacity 1260K, committed 1280K, reserved 1048576K
}
Event: 4.670 GC heap before
{Heap before GC invocations=3 (full 0):
 PSYoungGen      total 71680K, used 71060K [0x00000000e0000000, 0x00000000e4b00000, 0x0000000100000000)
  eden space 66560K, 100% used [0x00000000e0000000,0x00000000e4100000,0x00000000e4100000)
  from space 5120K, 87% used [0x00000000e4600000,0x00000000e4a650a8,0x00000000e4b00000)
  to   space 5120K, 0% used [0x00000000e4100000,0x00000000e4100000,0x00000000e4600000)
 ParOldGen       total 87552K, used 16K [0x00000000a0000000, 0x00000000a5580000, 0x00000000e0000000)
  object space 87552K, 0% used [0x00000000a0000000,0x00000000a0004000,0x00000000a5580000)
 Metaspace       used 15675K, capacity 16024K, committed 16256K, reserved 1062912K
  class space    used 2236K, capacity 2390K, committed 2432K, reserved 1048576K
Event: 4.696 GC heap after
Heap after GC invocations=3 (full 0):
 PSYoungGen      total 71680K, used 5120K [0x00000000e0000000, 0x00000000e8c00000, 0x0000000100000000)
  eden space 66560K, 0% used [0x00000000e0000000,0x00000000e0000000,0x00000000e4100000)
  from space 5120K, 100% used [0x00000000e4100000,0x00000000e4600000,0x00000000e4600000)
  to   space 5120K, 0% used [0x00000000e8700000,0x00000000e8700000,0x00000000e8c00000)
 ParOldGen       total 87552K, used 5341K [0x00000000a0000000, 0x00000000a5580000, 0x00000000e0000000)
  object space 87552K, 6% used [0x00000000a0000000,0x00000000a05377e0,0x00000000a5580000)
 Metaspace       used 15675K, capacity 16024K, committed 16256K, reserved 1062912K
  class space    used 2236K, capacity 2390K, committed 2432K, reserved 1048576K
}
Event: 4.993 GC heap before
{Heap before GC invocations=4 (full 0):
 PSYoungGen      total 71680K, used 15861K [0x00000000e0000000, 0x00000000e8c00000, 0x0000000100000000)
  eden space 66560K, 16% used [0x00000000e0000000,0x00000000e0a7d440,0x00000000e4100000)
  from space 5120K, 100% used [0x00000000e4100000,0x00000000e4600000,0x00000000e4600000)
  to   space 5120K, 0% used [0x00000000e8700000,0x00000000e8700000,0x00000000e8c00000)
 ParOldGen       total 87552K, used 5341K [0x00000000a0000000, 0x00000000a5580000, 0x00000000e0000000)
  object space 87552K, 6% used [0x00000000a0000000,0x00000000a05377e0,0x00000000a5580000)
 Metaspace       used 16587K, capacity 16952K, committed 17152K, reserved 1064960K
  class space    used 2390K, capacity 2550K, committed 2560K, reserved 1048576K
Event: 5.009 GC heap after
Heap after GC invocations=4 (full 0):
 PSYoungGen      total 138240K, used 5104K [0x00000000e0000000, 0x00000000e8c00000, 0x0000000100000000)
  eden space 133120K, 0% used [0x00000000e0000000,0x00000000e0000000,0x00000000e8200000)
  from space 5120K, 99% used [0x00000000e8700000,0x00000000e8bfc010,0x00000000e8c00000)
  to   space 5120K, 0% used [0x00000000e8200000,0x00000000e8200000,0x00000000e8700000)
 ParOldGen       total 87552K, used 6322K [0x00000000a0000000, 0x00000000a5580000, 0x00000000e0000000)
  object space 87552K, 7% used [0x00000000a0000000,0x00000000a062c9d8,0x00000000a5580000)
 Metaspace       used 16587K, capacity 16952K, committed 17152K, reserved 1064960K
  class space    used 2390K, capacity 2550K, committed 2560K, reserved 1048576K
}
Event: 5.009 GC heap before
{Heap before GC invocations=5 (full 1):
 PSYoungGen      total 138240K, used 5104K [0x00000000e0000000, 0x00000000e8c00000, 0x0000000100000000)
  eden space 133120K, 0% used [0x00000000e0000000,0x00000000e0000000,0x00000000e8200000)
  from space 5120K, 99% used [0x00000000e8700000,0x00000000e8bfc010,0x00000000e8c00000)
  to   space 5120K, 0% used [0x00000000e8200000,0x00000000e8200000,0x00000000e8700000)
 ParOldGen       total 87552K, used 6322K [0x00000000a0000000, 0x00000000a5580000, 0x00000000e0000000)
  object space 87552K, 7% used [0x00000000a0000000,0x00000000a062c9d8,0x00000000a5580000)
 Metaspace       used 16587K, capacity 16952K, committed 17152K, reserved 1064960K
  class space    used 2390K, capacity 2550K, committed 2560K, reserved 1048576K

Deoptimization events (10 events):
Event: 3.503 Thread 0x000000001960a800 Uncommon trap: reason=unstable_if action=reinterpret pc=0x0000000002f7e570 method=java.util.concurrent.ConcurrentHashMap.putVal(Ljava/lang/Object;Ljava/lang/Object;Z)Ljava/lang/Object; @ 206
Event: 3.633 Thread 0x0000000019621000 Uncommon trap: reason=bimorphic action=maybe_recompile pc=0x0000000002e75cc8 method=java.util.HashMap.putVal(ILjava/lang/Object;Ljava/lang/Object;ZZ)Ljava/lang/Object; @ 253
Event: 3.633 Thread 0x0000000019621000 Uncommon trap: reason=bimorphic action=maybe_recompile pc=0x0000000002e75cc8 method=java.util.HashMap.putVal(ILjava/lang/Object;Ljava/lang/Object;ZZ)Ljava/lang/Object; @ 253
Event: 3.633 Thread 0x0000000019621000 Uncommon trap: reason=bimorphic action=maybe_recompile pc=0x0000000002e75cc8 method=java.util.HashMap.putVal(ILjava/lang/Object;Ljava/lang/Object;ZZ)Ljava/lang/Object; @ 253
Event: 3.633 Thread 0x0000000019621000 Uncommon trap: reason=bimorphic action=maybe_recompile pc=0x0000000002e7a6b0 method=java.util.HashMap.putVal(ILjava/lang/Object;Ljava/lang/Object;ZZ)Ljava/lang/Object; @ 253
Event: 3.972 Thread 0x0000000019621000 Uncommon trap: reason=class_check action=maybe_recompile pc=0x0000000002e9a798 method=java.util.regex.Matcher.match(II)Z @ 86
Event: 4.006 Thread 0x0000000019621000 Uncommon trap: reason=class_check action=maybe_recompile pc=0x0000000002e9a798 method=java.util.regex.Matcher.match(II)Z @ 86
Event: 4.007 Thread 0x0000000019621000 Uncommon trap: reason=class_check action=maybe_recompile pc=0x0000000002e9a798 method=java.util.regex.Matcher.match(II)Z @ 86
Event: 4.007 Thread 0x0000000019621000 Uncommon trap: reason=class_check action=maybe_recompile pc=0x0000000002e5a95c method=java.util.regex.Matcher.match(II)Z @ 86
Event: 4.506 Thread 0x0000000019621000 Uncommon trap: reason=unstable_if action=reinterpret pc=0x0000000002fba474 method=java.lang.String.lastIndexOf([CII[CIII)I @ 66

Classes redefined (0 events):
No events

Internal exceptions (10 events):
Event: 3.509 Thread 0x000000001960a800 Exception <a 'java/lang/NoSuchMethodError': <clinit>> (0x00000000e0adfd20) thrown at [D:\src\AOSP-openjdk-cygwin\jdk8u\hotspot\src\share\vm\prims\jni.cpp, line 1613]
Event: 3.512 Thread 0x000000001960a800 Exception <a 'java/lang/NoSuchMethodError': <clinit>> (0x00000000e0af49d8) thrown at [D:\src\AOSP-openjdk-cygwin\jdk8u\hotspot\src\share\vm\prims\jni.cpp, line 1613]
Event: 3.519 Thread 0x000000001960a800 Exception <a 'java/lang/NoSuchMethodError': <clinit>> (0x00000000e0b07a48) thrown at [D:\src\AOSP-openjdk-cygwin\jdk8u\hotspot\src\share\vm\prims\jni.cpp, line 1613]
Event: 3.526 Thread 0x000000001960a800 Exception <a 'java/lang/NoSuchMethodError': <clinit>> (0x00000000e0b2e7b0) thrown at [D:\src\AOSP-openjdk-cygwin\jdk8u\hotspot\src\share\vm\prims\jni.cpp, line 1613]
Event: 3.529 Thread 0x000000001960a800 Exception <a 'java/lang/NoSuchMethodError': <clinit>> (0x00000000e0b46380) thrown at [D:\src\AOSP-openjdk-cygwin\jdk8u\hotspot\src\share\vm\prims\jni.cpp, line 1613]
Event: 3.532 Thread 0x000000001960a800 Exception <a 'java/lang/NoSuchMethodError': <clinit>> (0x00000000e0b4ee48) thrown at [D:\src\AOSP-openjdk-cygwin\jdk8u\hotspot\src\share\vm\prims\jni.cpp, line 1613]
Event: 3.537 Thread 0x000000001960a800 Exception <a 'java/lang/NoSuchMethodError': <clinit>> (0x00000000e0b64fd0) thrown at [D:\src\AOSP-openjdk-cygwin\jdk8u\hotspot\src\share\vm\prims\jni.cpp, line 1613]
Event: 3.556 Thread 0x000000001960a800 Exception <a 'java/lang/NoSuchMethodError': <clinit>> (0x00000000e0bc2fa8) thrown at [D:\src\AOSP-openjdk-cygwin\jdk8u\hotspot\src\share\vm\prims\jni.cpp, line 1613]
Event: 3.573 Thread 0x000000001960a800 Exception <a 'java/lang/NoSuchMethodError': <clinit>> (0x00000000e0bef598) thrown at [D:\src\AOSP-openjdk-cygwin\jdk8u\hotspot\src\share\vm\prims\jni.cpp, line 1613]
Event: 3.583 Thread 0x000000001960a800 Exception <a 'java/lang/NoSuchMethodError': <clinit>> (0x00000000e0c0ba68) thrown at [D:\src\AOSP-openjdk-cygwin\jdk8u\hotspot\src\share\vm\prims\jni.cpp, line 1613]

Events (10 events):
Event: 4.989 loading class org/apache/commons/logging/LogFactory done
Event: 4.990 Thread 0x0000000019621000 DEOPT PACKING pc=0x0000000003069acc sp=0x000000001aad8b90
Event: 4.990 Thread 0x0000000019621000 DEOPT UNPACKING pc=0x0000000002c175d0 sp=0x000000001aad8a08 mode 0
Event: 4.991 loading class org/apache/commons/logging/impl/SLF4JLogFactory
Event: 4.991 loading class org/apache/commons/logging/impl/SLF4JLogFactory done
Event: 4.992 loading class org/apache/commons/logging/impl/SLF4JLocationAwareLog
Event: 4.992 loading class org/apache/commons/logging/impl/SLF4JLocationAwareLog done
Event: 4.992 loading class org/apache/commons/logging/Log
Event: 4.992 loading class org/apache/commons/logging/Log done
Event: 4.993 Executing VM operation: CollectForMetadataAllocation


Dynamic libraries:
0x00007ff7af3d0000 - 0x00007ff7af401000 	C:\Program Files\Android\Android Studio\jre\bin\java.exe
0x00007fffe5440000 - 0x00007fffe5621000 	C:\WINDOWS\SYSTEM32\ntdll.dll
0x00007fffe5270000 - 0x00007fffe5321000 	C:\WINDOWS\System32\KERNEL32.DLL
0x00007fffe24b0000 - 0x00007fffe2723000 	C:\WINDOWS\System32\KERNELBASE.dll
0x00007fffe5360000 - 0x00007fffe5401000 	C:\WINDOWS\System32\ADVAPI32.dll
0x00007fffe30a0000 - 0x00007fffe313e000 	C:\WINDOWS\System32\msvcrt.dll
0x00007fffe2a70000 - 0x00007fffe2acb000 	C:\WINDOWS\System32\sechost.dll
0x00007fffe4f50000 - 0x00007fffe5074000 	C:\WINDOWS\System32\RPCRT4.dll
0x00007fffe28e0000 - 0x00007fffe2a70000 	C:\WINDOWS\System32\USER32.dll
0x00007fffe2360000 - 0x00007fffe2380000 	C:\WINDOWS\System32\win32u.dll
0x00007fffe5240000 - 0x00007fffe5268000 	C:\WINDOWS\System32\GDI32.dll
0x00007fffe2730000 - 0x00007fffe28c2000 	C:\WINDOWS\System32\gdi32full.dll
0x00007fffe19c0000 - 0x00007fffe1a5f000 	C:\WINDOWS\System32\msvcp_win.dll
0x00007fffe1860000 - 0x00007fffe1958000 	C:\WINDOWS\System32\ucrtbase.dll
0x00007fffcbfe0000 - 0x00007fffcc249000 	C:\WINDOWS\WinSxS\amd64_microsoft.windows.common-controls_6595b64144ccf1df_6.0.17134.765_none_fb42a1a930655896\COMCTL32.dll
0x00007fffe33c0000 - 0x00007fffe36e2000 	C:\WINDOWS\System32\combase.dll
0x00007fffe2430000 - 0x00007fffe24aa000 	C:\WINDOWS\System32\bcryptPrimitives.dll
0x00007fffe5330000 - 0x00007fffe535d000 	C:\WINDOWS\System32\IMM32.DLL
0x000000005e900000 - 0x000000005e9d2000 	C:\Program Files\Android\Android Studio\jre\jre\bin\msvcr100.dll
0x000000005d960000 - 0x000000005e1a1000 	C:\Program Files\Android\Android Studio\jre\jre\bin\server\jvm.dll
0x00007fffe5100000 - 0x00007fffe5108000 	C:\WINDOWS\System32\PSAPI.DLL
0x00007fffdf610000 - 0x00007fffdf633000 	C:\WINDOWS\SYSTEM32\WINMM.dll
0x00007fffcffa0000 - 0x00007fffcffaa000 	C:\WINDOWS\SYSTEM32\VERSION.dll
0x00007fffcbc80000 - 0x00007fffcbc89000 	C:\WINDOWS\SYSTEM32\WSOCK32.dll
0x00007fffe51d0000 - 0x00007fffe523c000 	C:\WINDOWS\System32\WS2_32.dll
0x00007fffdf4d0000 - 0x00007fffdf4fa000 	C:\WINDOWS\SYSTEM32\WINMMBASE.dll
0x00007fffe1810000 - 0x00007fffe1859000 	C:\WINDOWS\System32\cfgmgr32.dll
0x00007fffdc330000 - 0x00007fffdc33f000 	C:\Program Files\Android\Android Studio\jre\jre\bin\verify.dll
0x00007fffd1b30000 - 0x00007fffd1b59000 	C:\Program Files\Android\Android Studio\jre\jre\bin\java.dll
0x00007fffd8b00000 - 0x00007fffd8b16000 	C:\Program Files\Android\Android Studio\jre\jre\bin\zip.dll
0x00007fffe38c0000 - 0x00007fffe4d00000 	C:\WINDOWS\System32\SHELL32.dll
0x00007fffe3790000 - 0x00007fffe3839000 	C:\WINDOWS\System32\shcore.dll
0x00007fffe1a60000 - 0x00007fffe216d000 	C:\WINDOWS\System32\windows.storage.dll
0x00007fffe5110000 - 0x00007fffe5161000 	C:\WINDOWS\System32\shlwapi.dll
0x00007fffe17b0000 - 0x00007fffe17c1000 	C:\WINDOWS\System32\kernel.appcore.dll
0x00007fffe17d0000 - 0x00007fffe17ef000 	C:\WINDOWS\System32\profapi.dll
0x00007fffe1750000 - 0x00007fffe179c000 	C:\WINDOWS\System32\powrprof.dll
0x00007fffe17a0000 - 0x00007fffe17aa000 	C:\WINDOWS\System32\FLTLIB.DLL
0x00007fffd66c0000 - 0x00007fffd66da000 	C:\Program Files\Android\Android Studio\jre\jre\bin\net.dll
0x00007fffe0f70000 - 0x00007fffe0fd6000 	C:\WINDOWS\system32\mswsock.dll
0x00007fffd0d60000 - 0x00007fffd0d71000 	C:\Program Files\Android\Android Studio\jre\jre\bin\nio.dll
0x00007fffdc3d0000 - 0x00007fffdc3ee000 	C:\Users\rutvi\.gradle\native\25\windows-amd64\native-platform.dll
0x00007fffdc320000 - 0x00007fffdc32d000 	C:\Program Files\Android\Android Studio\jre\jre\bin\management.dll
0x00007fffe1120000 - 0x00007fffe1137000 	C:\WINDOWS\SYSTEM32\CRYPTSP.dll
0x00007fffe0b50000 - 0x00007fffe0b83000 	C:\WINDOWS\system32\rsaenh.dll
0x00007fffe12b0000 - 0x00007fffe12d5000 	C:\WINDOWS\SYSTEM32\bcrypt.dll
0x00007fffe1680000 - 0x00007fffe16a8000 	C:\WINDOWS\SYSTEM32\USERENV.dll
0x00007fffe1140000 - 0x00007fffe114b000 	C:\WINDOWS\SYSTEM32\CRYPTBASE.dll
0x00007fffe0cf0000 - 0x00007fffe0d28000 	C:\WINDOWS\SYSTEM32\IPHLPAPI.DLL
0x00007fffe33b0000 - 0x00007fffe33b8000 	C:\WINDOWS\System32\NSI.dll
0x00007fffdc120000 - 0x00007fffdc136000 	C:\WINDOWS\SYSTEM32\dhcpcsvc6.DLL
0x00007fffdc490000 - 0x00007fffdc4aa000 	C:\WINDOWS\SYSTEM32\dhcpcsvc.DLL

VM Arguments:
jvm_args: -Xmx1536m -Dfile.encoding=windows-1252 -Duser.country=IN -Duser.language=en -Duser.variant 
java_command: org.gradle.launcher.daemon.bootstrap.GradleDaemon 5.1.1
java_class_path (initial): C:\Users\rutvi\.gradle\wrapper\dists\gradle-5.1.1-all\97z1ksx6lirer3kbvdnh7jtjg\gradle-5.1.1\lib\gradle-launcher-5.1.1.jar
Launcher Type: SUN_STANDARD

Environment Variables:
PATH=C:\Program Files (x86)\Common Files\Oracle\Java\javapath;C:\ProgramData\Oracle\Java\javapath;C:\WINDOWS\system32;C:\WINDOWS;C:\WINDOWS\System32\Wbem;C:\WINDOWS\System32\WindowsPowerShell\v1.0\;C:\Program Files (x86)\ATI Technologies\ATI.ACE\Core-Static;C:\WINDOWS\System32\OpenSSH\;C:\Program Files\Intel\WiFi\bin\;C:\Program Files\Common Files\Intel\WirelessCommon\;c:\Program Files (x86)\Microsoft SQL Server\90\Tools\binn\;C:\Program Files (x86)\MySQL\MySQL Utilities 1.6\;C:\Program Files\Java\jdk-10.0.2\bin;C:\Program Files\Java\jre-10.0.2\bin;C:\Program Files\Git\cmd;C:\Program Files\Git;C:\Program Files\nodejs\;C:\Program Files\Java\jdk-10.0.2\bin;C:\Program Files\heroku\bin;C:\Users\rutvi\AppData\Roaming\npm;C:\Users\rutvi\AppData\Local\Programs\Microsoft VS Code\bin;C:\Program Files\MongoDB\Server\4.0\bin;
USERNAME=rutvi
OS=Windows_NT
PROCESSOR_IDENTIFIER=Intel64 Family 6 Model 61 Stepping 4, GenuineIntel



---------------  S Y S T E M  ---------------

OS: Windows 10.0 , 64 bit Build 17134 (10.0.17134.753)

CPU:total 4 (initial active 4) (2 cores per cpu, 2 threads per core) family 6 model 61 stepping 4, cmov, cx8, fxsr, mmx, sse, sse2, sse3, ssse3, sse4.1, sse4.2, popcnt, avx, avx2, aes, clmul, erms, 3dnowpref, lzcnt, ht, tsc, tscinvbit, bmi1, bmi2, adx

Memory: 4k page, physical 8301008k(837408k free), swap 11155920k(3988k free)

vm_info: OpenJDK 64-Bit Server VM (25.152-b01) for windows-amd64 JRE (1.8.0_152-release-1248-b01), built by "builder" with MS VC++ 10.0 (VS2010)

time: Sat Jun 01 08:47:33 2019
elapsed time: 5 seconds (0d 0h 0m 5s)

